…
ได้ใจความว่า หาหนังสือประเภท e-book โดยแสดงข้อมูลชื่อ, ประเภทและจำนวนการดูของหนังสือซึ่งเรียงลำดับจำนวนการดูจากน้อยไปมาก



6. เปลี่ยนชื่อ variable จาก Description เป็น Explanation 🎊


```
rename(comsci, Explanation = Description)   # rename column 
```


Result:
```
# A tibble: 271 x 7
   Rating Reviews Book_title                       Explanation                                Number_Of_Pages Type    Price
    <dbl>   <dbl> <chr>                            <chr>                                                <dbl> <chr>   <dbl>
 1   4.17    3829 The Elements of Style            "This style manual offers practical advic~             105 Hardco~  9.32
 2   4.01    1406 The Information: A History, a T~ "James Gleick, the author of the best sel~             527 Hardco~ 11   
 3   3.33       0 Responsive Web Design Overview ~ "In Responsive Web Design Overview For Be~              50 Kindle~ 11.3 
 4   3.97    1658 Ghost in the Wires: My Adventur~ "If they were a hall of fame or shame for~             393 Hardco~ 12.9 
 5   4.06    1325 How Google Works                 "Both Eric Schmidt and Jonathan Rosenberg~             305 Kindle~ 13.2 
 6   3.84     117 The Meme Machine                 "What is a meme? First coined by Richard ~             288 Paperb~ 14.2 
 7   4.09    5938 Start with Why: How Great Leade~ "Why do you do what you do?\n\nWhy are so~             256 Hardco~ 14.2 
 8   4.15    1817 Algorithms to Live By: The Comp~ "A fascinating exploration of how insight~             368 Hardco~ 14.4 
 9   3.87    2093 Weapons of Math Destruction: Ho~ "A former Wall Street quant sounds an ala~             259 Hardco~ 14.5 
10   4.62       0 ZX Spectrum Games Code Club: Tw~ "This book is ideal for ZX Spectrum fans ~             128 Paperb~ 14.6 
# ... with 261 more rows
```
…
